{
    "data": [
        {
            "id": 1,
            "foo": "bar"
        }
    ],
    "links": {
        "first": "http://www.foo.bar/?page=1",
        "last": "http://www.foo.bar/?page=3",
        "prev": "http://www.foo.bar/?page=1",
        "next": "http://www.foo.bar/?page=3"
    },
    "meta": {
        "offset": 75,
        "perPage": 25,
        "total": 1621
    }
}
